…
This tells us we want the second list element, which is the data frame, and then make that a `tibble` for nice printing:


```r
bow(vic_test_url) %>% 
  scrape() %>% 
  html_table() %>% 
  pluck(2) %>% 
  as_tibble()
#> # A tibble: 459 x 4
#>    DATE      CASES TESTS  POS   
#>    <chr>     <int> <chr>  <chr> 
#>  1 24 Jun 21     3 22,812 0.01 %
#>  2 23 Jun 21     1 28,967 0.00 %
#>  3 22 Jun 21     2 12,476 0.02 %
#>  4 21 Jun 21     9 16,290 0.06 %
#>  5 20 Jun 21     2 19,502 0.01 %
#>  6 19 Jun 21     3 30,843 0.01 %
#>  7 18 Jun 21     2 35,252 0.01 %
#>  8 17 Jun 21     1 25,635 0.00 %
#>  9 16 Jun 21     8 17,538 0.05 %
#> 10 15 Jun 21     3 15,067 0.02 %
#> # … with 449 more rows
```

All together now:


```r
vic_test_url <- "https://covidlive.com.au/report/daily-positive-test-rate/vic"

vic_test_data_raw <- bow(vic_test_url) %>% 
  scrape() %>% 
  html_table() %>% 
  purrr::pluck(2) %>% 
  as_tibble()

vic_test_data_raw
#> # A tibble: 459 x 4
#>    DATE      CASES TESTS  POS   
#>    <chr>     <int> <chr>  <chr> 
#>  1 24 Jun 21     3 22,812 0.01 %
#>  2 23 Jun 21     1 28,967 0.00 %
#>  3 22 Jun 21     2 12,476 0.02 %
#>  4 21 Jun 21     9 16,290 0.06 %
#>  5 20 Jun 21     2 19,502 0.01 %
#>  6 19 Jun 21     3 30,843 0.01 %
#>  7 18 Jun 21     2 35,252 0.01 %
#>  8 17 Jun 21     1 25,635 0.00 %
#>  9 16 Jun 21     8 17,538 0.05 %
#> 10 15 Jun 21     3 15,067 0.02 %
#> # … with 449 more rows
```
…
Ugh, dates.

OK, so now let's clean up the dates.


```r
vic_test_data_raw %>% 
  mutate(DATE = strp_date(DATE))
#> # A tibble: 459 x 4
#>    DATE       CASES TESTS  POS   
#>    <date>     <int> <chr>  <chr> 
#>  1 2021-06-24     3 22,812 0.01 %
#>  2 2021-06-23     1 28,967 0.00 %
#>  3 2021-06-22     2 12,476 0.02 %
#>  4 2021-06-21     9 16,290 0.06 %
#>  5 2021-06-20     2 19,502 0.01 %
#>  6 2021-06-19     3 30,843 0.01 %
#>  7 2021-06-18     2 35,252 0.01 %
#>  8 2021-06-17     1 25,635 0.00 %
#>  9 2021-06-16     8 17,538 0.05 %
#> 10 2021-06-15     3 15,067 0.02 %
#> # … with 449 more rows
```

And let's use `parse_number` to convert `TESTS` and `POS` into numbers, as they have commas in them and % signs, so R registers them as character strings. 


```r
vic_test_data_raw %>% 
  mutate(DATE = strp_date(DATE),
         TESTS = parse_number(TESTS),
         POS = parse_number(POS))
#> # A tibble: 459 x 4
#>    DATE       CASES TESTS   POS
#>    <date>     <int> <dbl> <dbl>
#>  1 2021-06-24     3 22812  0.01
#>  2 2021-06-23     1 28967  0   
#>  3 2021-06-22     2 12476  0.02
#>  4 2021-06-21     9 16290  0.06
#>  5 2021-06-20     2 19502  0.01
#>  6 2021-06-19     3 30843  0.01
#>  7 2021-06-18     2 35252  0.01
#>  8 2021-06-17     1 25635  0   
#>  9 2021-06-16     8 17538  0.05
#> 10 2021-06-15     3 15067  0.02
#> # … with 449 more rows
```

`parse_number()` (from [`readr`](https://readr.tidyverse.org/)) is one of my favourite little functions, as this saves me a ton of effort.

Now let's use `clean_names()` function from `janitor` to make the names all lower case, making them a bit nicer to deal with. (I don't like holding down shift to type all caps for long periods of time, unless I've got something exciting to celebrate or scream).


```r
vic_test_data_raw %>% 
  mutate(DATE = strp_date(DATE),
         TESTS = parse_number(TESTS),
         POS = parse_number(POS)) %>% 
  janitor::clean_names() 
#> # A tibble: 459 x 4
#>    date       cases tests   pos
#>    <date>     <int> <dbl> <dbl>
#>  1 2021-06-24     3 22812  0.01
#>  2 2021-06-23     1 28967  0   
#>  3 2021-06-22     2 12476  0.02
#>  4 2021-06-21     9 16290  0.06
#>  5 2021-06-20     2 19502  0.01
#>  6 2021-06-19     3 30843  0.01
#>  7 2021-06-18     2 35252  0.01
#>  8 2021-06-17     1 25635  0   
#>  9 2021-06-16     8 17538  0.05
#> 10 2021-06-15     3 15067  0.02
#> # … with 449 more rows
```
…
